{
    "name": "Accions",
    "maps": [
        {
            "name": "Movimiento",
            "id": "2c69d231-ba72-41eb-8eeb-1e15e2c817db",
            "actions": [
                {
                    "name": "Horizontal",
                    "type": "PassThrough",
                    "id": "8cca107a-3f79-48e5-b30f-aa05e62fe220",
                    "expectedControlType": "Button",
                    "processors": "",
                    "interactions": "",
                    "initialStateCheck": false
                }
            ],
            "bindings": [
                {
                    "name": "Flechas",
                    "id": "266effa9-3b65-437f-8a4b-25c62a47531c",
                    "path": "1DAxis",
                    "interactions": "",
                    "processors": "",
                    "groups": "",
                    "action": "Horizontal",
                    "isComposite": true,
                    "isPartOfComposite": false
                },
                {
                    "name": "negative",
                    "id": "f67f33b6-3256-4333-9b1f-e7a81c4a13fc",
                    "path": "<Keyboard>/leftArrow",
                    "interactions": "",
                    "processors": "",
                    "groups": "",
                    "action": "Horizontal",
                    "isComposite": false,
                    "isPartOfComposite": true
                },
                {
                    "name": "positive",
                    "id": "f301d714-0c5b-4601-b823-8a1b1146f0d5",
                    "path": "<Keyboard>/rightArrow",
                    "interactions": "",
                    "processors": "",
                    "groups": "",
                    "action": "Horizontal",
                    "isComposite": false,
                    "isPartOfComposite": true
                }
            ]
        }
    ],
    "controlSchemes": []
}